
#383 - Tabouk

owner = U06
controller = U06
add_core = U06
add_core = F57
culture = khasani
religion = mother_akasik

hre = no

base_tax = 2
base_production = 3
base_manpower = 2

trade_goods = iron

capital = ""

is_city = yes
