#Original Giberd MT: Aeriic, cormac
#Rework Designed by: DefinitiveDoge, Arieriel
#Coded by: Tritone, DefinitiveDoge, Faeelin
#Reviewed by: Chronologic, armonistan, Wagentzu, Oxtrooo
#Loc by Xris, DefinitiveDoge
giberd_imperial = {
	slot = 1
	generic = no
	ai = yes
	potential = {
		tag = A81
	}
	has_country_shield = yes
	giberd_trading_in_damestear = {
		icon = mission_the_dame_tears
		required_missions = {
			giberd_electoral_dreams
		}
		position = 7
		trigger = {
			if = {
				limit = {
					NOT = {
						owns = 9
					}
				}
				OR = {
					9 = {
						owner = {
							is_rival = ROOT
						}
					}
					custom_trigger_tooltip = {
						tooltip = giberd_trading_in_damestear_tt
						9 = {
							owner = {
								has_100_opinion_improved_relation = {
									target = ROOT
								}
							}
						}
					}
				}
				9 = {
					owner = {
						NOT = {
							navy_size = ROOT
						}
					}
				}
			}
			else = {
				owns_core_province = 9
			}
			treasury = 2000
		}
		effect = {
			country_event = {
				id = flavor_giberd.31
			}
		}
	}
	giberd_the_pinklady_power = {
		icon = mission_develop_nevas_port
		required_missions = {
			giberd_trading_in_damestear
			giberd_wind_in_our_sails
		}
		position = 8
		provinces_to_highlight = {
			owned_by = ROOT
			AND = {
				NOT = {
					has_trade_building_trigger = yes
				}
				NOT = {
					ROOT = {
						num_of_owned_provinces_with = {
							value = 10
							has_trade_building_trigger = yes
						}
					}
				}
			}
		}
		trigger = {
			custom_trigger_tooltip = {
				tooltip = giberd_the_pinklady_power_tt
				OR = {
					AND = {
						280 = {
							owned_by = ROOT
						}
						576 = {
							owned_by = ROOT
						}
					}
					AND = {
						280 = {
							owner = {
								has_opinion = {
									who = ROOT
									value = 150
								}
							}
						}
						901 = {
							is_strongest_trade_power = ROOT
						}
						num_of_owned_provinces_with = {
							value = 10
							has_trade_building_trigger = yes
						}
					}
					AND = {
						280 = {
							owner = {
								is_enemy = ROOT
								trade_embargo_by = ROOT
							}
						}
						916 = {
							infantry_in_province = ROOT
							infantry_in_province = 20
						}
					}
				}
			}
		}
		effect = {
			country_event = {
				id = flavor_giberd.33
			}
		}
	}
	giberd_to_strike_an_anvil = {
		icon = mission_smith
		required_missions = {
			giberd_the_pinklady_power
		}
		position = 10
		provinces_to_highlight = {
			AND = {
				province_id = 308
				NOT = {
					owned_by = ROOT
					ROOT = {
						AND = {
							OR = {
								reverse_has_opinion = {
									who = A73
									value = 200
								}
								A73 = {
									trust = {
										who = ROOT
										value = 95
									}
								}
							}
							has_25_opinion_sent_gift = {
								target = A73
							}
						}
					}
				}
			}
		}
		trigger = {
			OR = {
				AND = {
					owns = 308
					owns = 912
				}
				AND = {
					OR = {
						reverse_has_opinion = {
							who = A73
							value = 200
						}
						A73 = {
							trust = {
								who = ROOT
								value = 95
							}
						}
					}
					A73 = {
						has_25_opinion_sent_gift = {
							target = ROOT
						}
					}
				}
			}
			if = {
				limit = {
					A73 = {
						is_elector = yes
					}
					ROOT = {
						is_elector = yes
					}
				}
				custom_trigger_tooltip = {
					tooltip = giberd_to_strike_an_anvil_tt
					any_known_country = {
						AND = {
							A73 = {
								preferred_emperor = PREV
							}
							ROOT = {
								preferred_emperor = PREV
							}
						}
					}
				}
			}
			artifice_has_points_30 = yes
		}
		effect = {
			country_event = {
				id = flavor_giberd.34
			}
		}
	}
}

giberd_konwell_conquest = {
	slot = 2
	generic = no
	ai = yes
	potential = {
		tag = A81
	}
	has_country_shield = yes
	giberd_onwards_to_esmaria = {
		icon = mission_heated_battle
		required_missions = {
			giberd_ready_the_anvil
		}
		position = 2
		provinces_to_highlight = {
			OR = {
				area = bennonhill_area
				area = hearthswood_area
			}
			NOT = {
				owned_by = ROOT
			}
		}
		trigger = {
			OR = {
				bennonhill_area = {
					type = all
					OR = {
						owned_by = ROOT
						province_id = 909
					}
				}
				hearthswood_area = {
					type = all
					owned_by = ROOT
				}
			}
			has_adm_advisor = yes
			has_dip_advisor = yes
			has_estate_privilege = estate_artificers_gnommo_diplomacy
		}
		effect = {
			songbarges_area = {
				limit = {
					NOT = {
						is_core = ROOT
					}
					NOT = {
						is_permanent_claim = ROOT
					}
				}
				add_permanent_claim = ROOT
			}
			cann_esmar_area = {
				add_permanent_claim = ROOT
			}
			901 = {
				# Leslinpar
				add_permanent_claim = ROOT
			}
			302 = {
				# Yellowford
				add_permanent_claim = ROOT
			}
			hidden_effect = {
				country_event = {
					id = flavor_giberd.18
					days = 1825
				}
			}
		}
	}
	giberd_replacing_the_pane = {
		icon = mission_danzig_or_war
		required_missions = {
			giberd_onwards_to_esmaria
			giberd_not_just_a_mere_cog
		}
		position = 3
		provinces_to_highlight = {
			OR = {
				AND = {
					province_id = 266
					ROOT = {
						historical_rival_with = A44
					}
					OR = {
						NOT = {
							ROOT = {
								trade_embargoing = A44
							}
						}
						NOT = {
							ROOT = {
								has_spy_network_in = {
									who = A44
									value = 30
								}
							}
						}
					}
				}
				AND = {
					province_id = 271
					NOT = {
						base_production = 12
					}
				}
			}
		}
		trigger = {
			if = {
				limit = {
					NOT = {
						owns_or_subject_of = 266
					}
				}
				custom_trigger_tooltip = {
					tooltip = giberd_replacing_the_pane_tt
					historical_rival_with = A44
				}
				has_spy_network_in = {
					who = A44
					value = 30
				}
				trade_embargoing = A44
				army_strength = {
					who = A44
					value = 3
				}
			}
			else = {
				owns_or_subject_of = 266
				custom_trigger_tooltip = {
					tooltip = giberd_replacing_the_pane_tt
					always = yes
				}
			}
			271 = {
				base_production = 12
			}
		}
		effect = {
			if = {
				limit = {
					NOT = {
						owns_or_subject_of = 266
					}
				}
				266 = {
					add_center_of_trade_level = -1
					add_base_production = -4
					add_base_tax = -2
					add_devastation = 25
					owner = {
						custom_tooltip = giberd_replacing_the_pane_effect_tt
						hidden_effect = {
							remove_government_reform = free_city
							add_government_reform = merchants_reform
						}
					}
				}
			}
			271 = {
				center_of_trade = 1
				add_province_modifier = {
					name = giberd_influx_of_merchants
					duration = 3650
				}
			}
		}
	}
	giberd_song_and_steel = {
		icon = mission_iron_and_copper
		required_missions = {
			giberd_replacing_the_pane
		}
		position = 4
		provinces_to_highlight = {
			OR = {
				AND = {
					area = cann_esmar_area
					OR = {
						NOT = {
							owned_by = ROOT
						}
						NOT = {
							has_production_building_trigger = yes
						}
					}
				}
				AND = {
					area = songbarges_area
					OR = {
						NOT = {
							OR = {
								owned_by = ROOT
								owned_by = A93
							}
						}
						NOT = {
							has_tax_building_trigger = yes
						}
					}
				}
				AND = {
					OR = {
						province_id = 266
						province_id = 911
					}
					NOT = {
						province_has_current_tech_fort_trigger = yes
					}
				}
				AND = {
					province_id = 916
					NOT = {
						has_manufactory_trigger = yes
					}
				}
			}
		}
		trigger = {
			cann_esmar_area = {
				type = all
				owned_by = ROOT
				has_production_building_trigger = yes
			}
			songbarges_area = {
				type = all
				OR = {
					AND = {
						owned_by = ROOT
						has_tax_building_trigger = yes
					}
					owned_by = A93
				}
			}
			266 = {
				province_has_current_tech_fort_trigger = yes
			}
			911 = {
				province_has_current_tech_fort_trigger = yes
			}
			916 = {
				has_manufactory_trigger = yes
			}
		}
		effect = {
			266 = {
				add_province_modifier = {
					name = giberd_watching_the_north
					duration = 7300
				}
			}
			911 = {
				add_province_modifier = {
					name = giberd_watching_the_north
					duration = 7300
				}
			}
			songbarges_area = {
				add_province_modifier = {
					name = giberd_cultural_investments_in_the_south
					duration = 7300
				}
			}
			konwell_area = {
				add_permanent_claim = ROOT
			}
			ryalanar_area = {
				add_permanent_claim = ROOT
			}
		}
	}
	giberd_wind_in_our_sails = {
		icon = mission_establish_high_seas_navy
		required_missions = {
			giberd_electoral_dreams
		}
		position = 7
		provinces_to_highlight = {
			OR = {
				AND = {
					OR = {
						province_id = 271
						province_id = 266
					}
					NOT = {
						AND = {
							province_has_center_of_trade_of_level = 3
							has_state_edict = edict_protect_trade
						}
					}
				}
				AND = {
					province_id = 901
					NOT = {
						AND = {
							has_state_edict = edict_protect_trade
						}
					}
				}
			}
		}
		trigger = {
			is_not_researching_invention = yes
			artifice_has_points_20 = yes
			num_artifice_inventions_discovered = {
				VAL = 6
			}
			271 = {
				province_has_center_of_trade_of_level = 3
				has_state_edict = edict_protect_trade
			}
			266 = {
				province_has_center_of_trade_of_level = 3
				has_state_edict = edict_protect_trade
			}
			901 = {
				has_state_edict = edict_protect_trade
			}
		}
		effect = {
			# 10 years of -35% research speed
			add_country_modifier = {
				name = giberd_wind_towers_research
				duration = 3650
			}
			271 = {
				add_permanent_province_modifier = {
					name = giberd_wind_towers
					duration = -1
				}
			}
			266 = {
				add_permanent_province_modifier = {
					name = giberd_wind_towers
					duration = -1
				}
			}
			901 = {
				add_permanent_province_modifier = {
					name = giberd_wind_towers
					duration = -1
				}
			}
			268 = {
				add_permanent_province_modifier = {
					name = giberd_wind_towers
					duration = -1
				}
			}
			909 = {
				add_permanent_province_modifier = {
					name = giberd_wind_towers
					duration = -1
				}
			}
			country_event = {
				id = flavor_giberd.36
				days = 3650
			}
		}
	}
	giberd_graining_and_grazing = {
		icon = mission_pol_breadbasket_europe
		required_missions = {
			giberd_wind_in_our_sails
		}
		position = 8
		provinces_to_highlight = {
			owned_by = ROOT
			region = esmaria_region
			OR = {
				AND = {
					trade_goods = grain
					NOT = {
						AND = {
							has_manpower_building_trigger = yes
							has_building = farm_estate
							development = 25
						}
					}
				}
				AND = {
					trade_goods = livestock
					NOT = {
						AND = {
							has_manpower_building_trigger = yes
							OR = {
								has_building = farm_estate
								has_building = soldier_households
							}
							development = 25
						}
					}
				}
			}
		}
		trigger = {
			custom_trigger_tooltip = {
				tooltip = giberd_graining_and_grazing_grain_tt
				all_owned_province = {
					OR = {
						NOT = {
							region = esmaria_region
						}
						NOT = {
							trade_goods = grain
						}
						AND = {
							region = esmaria_region
							trade_goods = grain
							has_manpower_building_trigger = yes
							has_building = farm_estate
							development = 25
						}
					}
				}
			}
			custom_trigger_tooltip = {
				tooltip = giberd_graining_and_grazing_livestock_tt
				all_owned_province = {
					OR = {
						NOT = {
							region = esmaria_region
						}
						NOT = {
							trade_goods = livestock
						}
						AND = {
							region = esmaria_region
							trade_goods = livestock
							has_manpower_building_trigger = yes
							OR = {
								has_building = farm_estate
								has_building = soldier_households
							}
							development = 25
						}
					}
				}
			}
			OR = {
				num_artifice_inventions_discovered_tier_1 = {
					VAL = 8
				}
				AND = {
					num_artifice_inventions_discovered_tier_2 = {
						VAL = 2
					}
					num_artifice_inventions_active_tier_2 = {
						VAL = 1
					}
				}
			}
			artifice_has_invention_slot = yes			# TODO: two invention slots withour using a VAT?
			901 = {
				has_production_manufactory_or_gold_trigger = yes
				has_production_building_trigger = yes
				development = 25
			}
		}
		effect = {
			# 20 years of -2 invention slots
			add_country_modifier = {
				name = giberd_smooth_giberdi_research
				duration = 7300
			}
			901 = {
				change_trade_goods = wine
				add_province_modifier = {
					name = giberd_smooth_giberdi
					duration = -1
				}
			}
			custom_tooltip = giberd_graining_and_grazing_grain_effect_tt
			tooltip = {
				capital_scope = {
					add_province_modifier = {
						name = giberd_gmo
						duration = -1
					}
				}
			}
			custom_tooltip = giberd_graining_and_grazing_livestock_effect_tt
			tooltip = {
				capital_scope = {
					add_province_modifier = {
						name = giberd_gmo_feed
						duration = -1
					}
				}
			}
			hidden_effect = {
				every_owned_province = {
					limit = {
						trade_goods = grain
						region = esmaria_region
					}
					add_province_modifier = {
						name = giberd_gmo
						duration = -1
					}
				}
				every_owned_province = {
					limit = {
						trade_goods = livestock
						region = esmaria_region
					}
					add_province_modifier = {
						name = giberd_gmo_feed
						duration = -1
					}
				}
			}
		}
	}
	giberd_paned_paper = {
		icon = bohemian_crystal
		required_missions = {
			giberd_graining_and_grazing
			giberd_diplomacy_deals_dominions
		}
		position = 9
		provinces_to_highlight = {
			region = esmaria_region
			OR = {
				AND = {
					province_id = 911
					NOT = {
						AND = {
							base_production = 14
							development = 25
							has_manufactory_trigger = yes
						}
					}
				}
				AND = {
					OR = {
						trade_goods = paper
						trade_goods = glass
					}
					NOT = {
						province_id = 309
						AND = {
							owned_by = ROOT
							has_production_building_trigger = yes
							has_manufactory_trigger = yes
							base_production = 12
						}
					}
				}
			}
		}
		trigger = {
			custom_trigger_tooltip = {
				tooltip = giberd_paned_paper_tt
				esmaria_region = {
					type = all
					OR = {
						AND = {
							owned_by = root
							has_production_building_trigger = yes
							has_manufactory_trigger = yes
							base_production = 12
						}
						NOT = {
							trade_goods = paper
							trade_goods = glass
						}
						province_id = 309
					}
				}
			}
			911 = {
				base_production = 14
				development = 25
				has_manufactory_trigger = yes
			}
			custom_trigger_tooltip = {
				tooltip = giberd_paned_paper_idea_tt
				has_idea = A81_artificer_loading_exoskeleton_v1
			}
		}
		effect = {
			add_estate_loyalty_modifier = {
				estate = estate_artificers
				desc = giberd_paned_paper_estate_loyalty_tt
				loyalty = -20
				duration = 7300
			}
			every_owned_province = {
				limit = {
					trade_goods = glass
					region = esmaria_region
				}
				add_province_modifier = {
					name = giberd_refined_glass_production_method
					duration = -1
				}
			}
			every_owned_province = {
				limit = {
					trade_goods = paper
					region = esmaria_region
				}
				add_province_modifier = {
					name = giberd_improved_chemical_pulping
					duration = -1
				}
			}
			911 = {
				remove_province_modifier = vanbury_steel_foundry
				change_trade_goods = glass
				add_province_modifier = {
					name = giberd_converted_vanbury_glassworks
					duration = -1
				}
			}
			if = {
				limit = {
					271 = {
						NOT = {
							trade_goods = glass
						}
					}
				}
				271 = {
					change_trade_goods = glass
				}
			}
		}
	}
	giberd_curtain_call = {
		icon = mission_state_manufactories
		required_missions = {
			giberd_paned_paper
		}
		position = 10
		provinces_to_highlight = {
			region = esmaria_region
			owned_by = ROOT
			AND = {
				trade_goods = cloth
				NOT = {
					AND = {
						has_trade_building_trigger = yes
						has_production_building_trigger = yes
						base_production = 12
					}
				}
			}
		}
		trigger = {
			num_economic_artifice_inventions_active_tier_1 = {
				VAL = 1
			}
			num_economic_artifice_inventions_active_tier_2 = {
				VAL = 1
			}
			num_economic_artifice_inventions_discovered_tier_2 = {
				VAL = 2
			}
			custom_trigger_tooltip = {
				tooltip = giberd_curtain_call_tt
				all_owned_province = {
					OR = {
						NOT = {
							region = esmaria_region
						}
						NOT = {
							trade_goods = cloth
						}
						AND = {
							trade_goods = cloth
							has_production_building_trigger = yes
							has_trade_building_trigger = yes
							base_production = 12
						}
					}
				}
			}
			260 = {
				base_production = 14
				has_production_manufactory_or_gold_trigger = yes
				has_state_edict = edict_centralization_effort
			}
			OR = {
				custom_trigger_tooltip = {
					tooltip = esmari_fashion_happened_tt
					has_global_flag = esmari_fashion_happened
				}
				treasury = 5000
			}
		}
		effect = {
			custom_tooltip = giberd_curtain_call_effect_tt
			hidden_effect = {
				add_country_modifier = {
					name = giberd_curtain_call_inventions
					duration = 7300
				}
			}
			260 = {
				add_province_modifier = {
					name = giberd_esmaria_fabric_market
					duration = -1
				}
			}
			every_owned_province = {
				limit = {
					trade_goods = cloth
					region = esmaria_region
				}
				add_province_modifier = {
					name = giberd_enhanced_cloth_production
					duration = -1
				}
			}
			if = {
				limit = {
					NOT = {
						has_global_flag = esmari_fashion_happened
					}
				}
				custom_tooltip = giberd_esmari_fashion_happened_yes
				add_treasury = -5000
				hidden_effect = {
					set_country_flag = esmari_fashion_early
				}
				country_event = {
					id = anb_price.43
				}
			}
		}
	}
	giberd_we_built_this_city = {
		icon = mission_early_game_buildings
		required_missions = {
			giberd_a_faire_to_remember
		}
		position = 12
		provinces_to_highlight = {
			province_id = 271
			NOT = {
				AND = {
					development = 50
					OR = {
						num_of_times_expanded_infrastructure = 3
						NOT = {
							has_dlc = "Leviathan"
						}
					}
					has_state_edict = edict_encourage_development
					has_courthouse_building_trigger = yes
					has_building = university
					owner = {
						papal_influence = 100
					}
				}
			}
		}
		trigger = {
			271 = {
				development = 50
				if = {
					limit = {
						has_dlc = "Leviathan"
					}
					num_of_times_expanded_infrastructure = 3
				}
				else = {
					owner = {
						adm_power = 200
					}
				}
				has_courthouse_building_trigger = yes
				has_building = university
			}
			papal_influence = 100
			custom_trigger_tooltip = {
				tooltip = giberd_we_built_this_city_edict_tt
				had_country_flag = {
					flag = giberd_bennonhill_development_edict
					days = 3650
				}
			}
		}
		effect = {
			add_papal_influence = -100
			271 = {
				add_province_modifier = {
					name = giberd_stained_glass_makers_ravelian
					duration = -1
				}
				remove_building = workshop
				add_building = counting_house
			}
			if = {
				limit = {
					NOT = {
						has_dlc = "Leviathan"
					}
				}
				add_adm_power = -200
			}
		}
	}
	giberd_egcat = {
		icon = imperial_capitals
		required_missions = {
			giberd_we_built_this_city
		}
		position = 13
		provinces_to_highlight = {
			province_id = 275
			NOT = {
				AND = {
					development = 40
					has_building = university
					has_building = mage_tower
				}
			}
		}
		trigger = {
			is_not_researching_invention = yes
			num_artifice_inventions_discovered = {
				VAL = 15
			}
			custom_trigger_tooltip = {
				tooltip = cost_60_artifice_capacity_to_maintain_tt
				check_variable = {
					which = RemainingArtificePoints
					value = 60
				}
			}
			#TODO: buy indulgence 3 times
			275 = {
				development = 40
				has_building = university
				has_building = state_house
			}
			any_known_country = {
				religion = regent_court
				OR = {
					alliance_with = ROOT
					has_opinion = {
						who = ROOT
						value = 100
					}
				}
			}
			any_known_country = {
				religion = corinite
				OR = {
					alliance_with = ROOT
					has_opinion = {
						who = ROOT
						value = 100
					}
				}
			}
		}
		effect = {
			disable_all_artifice_inventions = yes
			add_or_extend_country_modifier = {
				name = artificers_busy_120
				duration = 3650
			}
			block_artifice_research = {
				years = 10
				duration = 3650
			}
			random_owned_province = {
				limit = {
					has_cardinal = yes
					NOT = {
						has_province_modifier = giberd_permanent_veridical
					}
				}
				remove_cardinal = yes
			}
			275 = {
				change_culture = imperial_gnome
				add_province_modifier = {
					name = giberd_egcat
					duration = -1
				}
			}
		}
	}
}

giberd_ryalanar_conquest = {
	slot = 3
	generic = no
	ai = yes
	potential = {
		tag = A81
	}
	has_country_shield = yes
	giberd_ready_the_anvil = {
		icon = mission_alliances
		required_missions = {
		}
		position = 1
		trigger = {
			A73 = {
				alliance_with = ROOT
				if = {
					limit = {
						ROOT = {
							ai = no
						}
					}
					has_10_opinion_sent_gift = {
						target = ROOT
					}
				}
				has_opinion = {
					who = ROOT
					value = 150
				}
			}
		}
		effect = {
			country_event = {
				id = flavor_giberd.11
			}
			custom_tooltip = giberd_ae_gnomish_minority_tt
			hidden_effect = {
				set_country_flag = giberd_gnomes_ae
			}
		}
	}
	giberd_not_just_a_mere_cog = {
		icon = mission_confrontation
		required_missions = {
			giberd_ready_the_anvil
		}
		position = 2
		provinces_to_highlight = {
			owner = {
				total_development = ROOT
				capital_scope = {
					region = esmaria_region
				}
			}
		}
		trigger = {
			OR = {
				custom_trigger_tooltip = {
					tooltip = giberd_not_just_a_mere_cog_tt
					all_known_country = {
						OR = {
							NOT = {
								total_development = ROOT
							}
							NOT = {
								capital_scope = {
									region = esmaria_region
								}
							}
						}
					}
				}
				num_of_provinces_owned_or_owned_by_non_sovereign_subjects_with = {
					value = 6
					region = esmaria_region
				}
			}
			OR = {
				has_personal_deity = esmaryal
				has_personal_deity = ryala
			}
			OR = {
				calc_true_if = {
					all_elector = {
						has_25_opinion_sent_gift = {
							target = ROOT
						}
					}
					amount = 2
				}
				emperor = {
					has_opinion = {
						who = ROOT
						value = 100
					}
				}
			}
		}
		effect = {
			add_prestige = 20
			add_country_modifier = {
				name = giberd_not_a_cog_but_a_machine
				duration = 3650
			}
			add_country_modifier = {
				name = giberd_announcing_our_bid
				duration = 1825
			}
			hidden_effect = {
				country_event = {
					id = flavor_giberd.12
					days = 90
				}
			}
		}
	}
	giberd_gds_loopeng_gedsandde = {
		icon = imperial_navy
		required_missions = {
			giberd_not_just_a_mere_cog
			giberd_a_technocratic_administration
		}
		position = 3
		provinces_to_highlight = {
		}
		trigger = {
			artifice_has_points_20 = yes
			artifice_has_invention_slot = yes			# TODO: two invention slots withour using a VAT?
			num_society_artifice_inventions_active = {
				VAL = 1
			}
			monthly_income = 20
		}
		effect = {
			custom_tooltip = giberd_gds_loopeng_gedsandde_tt
			add_country_modifier = {
				name = giberd_gds_loopeng_gedsandde_research
				duration = 1825
			}
			custom_tooltip = giberd_after_5_years_tt
			tooltip = {
				add_country_modifier = {
					name = giberd_gds_loopeng_gedsandde
					duration = -1
				}
			}
			add_or_extend_country_modifier = {
				name = artificers_busy_40
				duration = 1825
			}
			hidden_effect = {
				country_event = {
					id = flavor_giberd.57
					days = 1825
				}
			}
		}
	}
	giberd_glass_stained_pink = {
		icon = mission_city_prosperity
		required_missions = {
			giberd_gds_loopeng_gedsandde
			giberd_replacing_the_pane
		}
		position = 4
		provinces_to_highlight = {
			OR = {
				AND = {
					area = bennonhill_area
					OR = {
						NOT = {
							is_prosperous = yes
						}
						NOT = {
							owned_by = ROOT
						}
					}
				}
				AND = {
					OR = {
						province_id = 901
						AND = {
							region = esmaria_region
							has_terrain = city_terrain
						}
					}
					NOT = {
						is_state_core = ROOT
					}
				}
				AND = {
					province_id = 271
					NOT = {
						province_has_center_of_trade_of_level = 2
					}
				}
			}
		}
		trigger = {
			bennonhill_area = {
				type = all
				is_prosperous = yes
				owned_by = ROOT
			}
			custom_trigger_tooltip = {
				tooltip = giberd_glass_stained_pink_tt
				901 = {
					is_state_core = ROOT
				}
				esmaria_region = {
					type = all
					OR = {
						NOT = {
							has_terrain = city_terrain
						}
						is_state_core = ROOT
					}
				}
			}
			army_size = 30
			271 = {
				province_has_center_of_trade_of_level = 2
			}
			treasury = 500
		}
		effect = {
			271 = {
				add_province_modifier = {
					name = giberd_regional_capital_of_esmaria
					duration = -1
				}
			}
			if = {
				limit = {
					NOT = {
						271 = {
							province_has_center_of_trade_of_level = 3
						}
					}
				}
				271 = {
					add_center_of_trade_level = 1
				}
				add_treasury = -500
			}
		}
	}
	giberd_uniting_esmaria = {
		icon = friends_in_high_places
		required_missions = {
			giberd_song_and_steel
			giberd_glass_stained_pink
			giberd_chroniclers_and_casters
		}
		position = 5
		provinces_to_highlight = {
			OR = {
				AND = {
					area = konwell_area
					NOT = {
						AND = {
							owned_by = ROOT
							is_core = ROOT
							has_state_edict = edict_advancement_effort
							has_courthouse_building_trigger = yes
							has_tax_building_trigger = yes
						}
					}
				}
				AND = {
					area = ryalanar_area
					NOT = {
						AND = {
							owned_by = ROOT
							is_core = ROOT
						}
					}
				}
				AND = {
					province_id = 265
					NOT = {
						AND = {
							has_dock_building_trigger = yes
							has_shipyard_building_trigger = yes
						}
					}
				}
			}
		}
		trigger = {
			konwell_area = {
				type = all
				owned_by = ROOT
				is_core = ROOT
				has_state_edict = edict_advancement_effort
				has_courthouse_building_trigger = yes
				has_tax_building_trigger = yes
			}
			ryalanar_area = {
				type = all
				owned_by = ROOT
				is_core = ROOT
			}
			265 = {
				has_dock_building_trigger = yes
				has_shipyard_building_trigger = yes
			}
			treasury = 500
		}
		effect = {
			265 = {
				add_province_modifier = {
					name = giberd_start_of_the_giberd_dockyards
					duration = -1
				}
			}
			country_event = {
				id = flavor_giberd.30
			}
			custom_tooltip = giberd_diplomatic_tour_tt
			hidden_effect = {
				country_event = {
					id = flavor_giberd.20
					days = 365
				}
			}
		}
	}
	giberd_electoral_dreams = {
		icon = mission_approach_throne
		required_missions = {
			giberd_uniting_esmaria
		}
		position = 6
		provinces_to_highlight = {
			owner = {
				AND = {
					is_elector = yes
					NOT = {
						has_opinion = {
							who = ROOT
							value = 150
						}
					}
				}
			}
		}
		trigger = {
			calc_true_if = {
				all_elector = {
					has_opinion = {
						who = ROOT
						value = 150
					}
				}
				amount = 4
			}
			custom_trigger_tooltip = {
				tooltip = hired_dip_advisor_of_level_3_tt
				employed_advisor = {
					category = DIP
					skill = 3
				}
			}
			has_global_modifier_value = {
				which = improve_relation_modifier
				value = 0.5
			}
		}
		effect = {
			country_event = {
				id = flavor_giberd.14
			}
			if = {
				limit = {
					calc_true_if = {
						all_elector = {
							has_opinion = {
								who = ROOT
								value = 150
							}
						}
						amount = 7
					}
				}
				custom_tooltip = electoral_dreams_bonus_yes
				add_prestige = 50
			}
			else = {
				custom_tooltip = electoral_dreams_bonus_no
				tooltip = {
					add_prestige = 50
				}
			}
		}
	}
	giberd_diplomacy_deals_dominions = {
		icon = mission_diplomacy_missive
		required_missions = {
			giberd_electoral_dreams
			giberd_wind_in_our_sails
		}
		position = 8
		provinces_to_highlight = {
			OR = {
				AND = {
					province_id = 901
					NOT = {
						is_strongest_trade_power = ROOT
					}
				}
				AND = {
					OR = {
						province_id = 417
						province_id = 234
					}
					NOT = {
						OR = {
							417 = {
								owner = {
									has_100_opinion_improved_relation = {
										target = ROOT
									}
								}
							}
							234 = {
								owner = {
									has_100_opinion_improved_relation = {
										target = ROOT
									}
								}
							}
						}
					}
				}
			}
		}
		trigger = {
			government_rank = 2
			OR = {
				417 = {
					owner = {
						has_100_opinion_improved_relation = {
							target = ROOT
						}
					}
				}
				234 = {
					owner = {
						has_100_opinion_improved_relation = {
							target = ROOT
						}
					}
				}
			}
			home_trade_node = {
				is_strongest_trade_power = ROOT
			}
			OR = {
				dip_power = 300
				full_idea_group = trade_ideas
			}
			custom_trigger_tooltip = {
				tooltip = diplomacy_deals_dominions_tt
				always = yes
			}
		}
		effect = {
			giberd_factions_technomancers_increase = yes
			add_country_modifier = {
				name = giberd_merchants_buying_artificer_goods
				duration = -1
			}
			add_country_modifier = {
				name = giberd_dealers_abroad
				duration = 1825
			}
			if = {
				limit = {
					NOT = {
						full_idea_group = trade_ideas
					}
				}
				add_dip_power = -300
			}
		}
	}
	giberd_the_artificers_of_cannor = {
		icon = mission_gnome_tinkering
		required_missions = {
			giberd_diplomacy_deals_dominions
		}
		position = 9
		provinces_to_highlight = {
			OR = {
				owner = {
					capital_scope = {
						continent = europe
					}
					NOT = {
						tag = ROOT
					}
					OR = {
						fast_owns_num_pops_of_race = {
							race = gnomish
							amount = 1
						}
						culture_is_gnomish = yes
						culture_is_dwarven = yes
					}
					NOT = {
						has_100_opinion_improved_relation = {
							target = ROOT
						}
					}
				}
				AND = {
					owned_by = ROOT
					region = esmaria_region
					fast_has_pop_of_race = {
						race = gnomish
					}
					AND = {
						NOT = {
							base_production = 7
						}
						NOT = {
							AND = {
								has_production_building_trigger = yes
								has_production_manufactory_or_gold_trigger = yes
							}
						}
					}
				}
			}
		}
		trigger = {
			custom_trigger_tooltip = {
				tooltip = giberd_the_artificers_of_cannor_tt
				any_known_country = {
					has_100_opinion_improved_relation = {
						target = ROOT
					}
					OR = {
						culture_is_gnomish = yes
						culture_is_dwarven = yes
						AND = {
							capital_scope = {
								continent = europe
							}
							fast_owns_num_pops_of_race = {
								race = gnomish
								amount = 1
							}
						}
					}
				}
			}
			treasury = 1000
			custom_trigger_tooltip = {
				tooltip = giberd_the_artificers_of_cannor_2_tt
				esmaria_region = {
					type = all
					OR = {
						NOT = {
							fast_has_pop_of_race = {
								race = gnomish
							}
						}
						NOT = {
							owned_by = ROOT
						}
						base_production = 7
						AND = {
							has_production_building_trigger = yes
							has_production_manufactory_or_gold_trigger = yes
						}
					}
				}
			}
		}
		effect = {
			add_treasury = -1000
			add_country_modifier = {
				name = giberd_artificers_of_cannor_modifier
				duration = 7300
			}
			275 = {
				add_gnomish_minority_size_effect = yes
			}
			911 = {
				add_gnomish_minority_size_effect = yes
			}
			266 = {
				add_gnomish_minority_size_effect = yes
			}
			901 = {
				add_gnomish_minority_size_effect = yes
			}
			random_known_country = {
				limit = {
					OR = {
						culture_is_gnomish = yes
						culture_is_dwarven = yes
						AND = {
							capital_scope = {
								continent = europe
							}
							any_owned_province = {
								fast_has_pop_of_race = {
									race = gnomish
								}
							}
						}
					}
					has_100_opinion_improved_relation = {
						target = ROOT
					}
				}
				capital_scope = {
					add_gnomish_minority_size_effect = yes
				}
			}
		}
	}
	giberd_sails_on_the_streams = {
		icon = mission_sailor_boat
		required_missions = {
			giberd_the_artificers_of_cannor
		}
		position = 10
		provinces_to_highlight = {
			region = esmaria_region
			has_port = yes
			NOT = {
				has_shipyard_building_trigger = yes
			}
			NOT = {
				ROOT = {
					num_of_owned_provinces_with = {
						value = 5
						has_shipyard_building_trigger = yes
						region = esmaria_region
					}
				}
			}
		}
		trigger = {
			mission_completed = giberd_to_strike_an_anvil
			if = {
				limit = {
					has_dlc = "Golden Century"
				}
				has_flagship = yes
			}
			else = {
				navy_tradition = 50
			}
			OR = {
				has_personal_deity = minara
				97 = {
					owner = {
						has_25_opinion_sent_gift = {
							target = ROOT
						}
					}
				}
			}
			num_of_owned_provinces_with = {
				value = 5
				has_shipyard_building_trigger = yes
				region = esmaria_region
			}
			# magisterium
			OR = {
				AND = {
					exists = A85
					army_strength = {
						who = A85
						value = 1
					}
					navy_size = A85
				}
				AND = {
					NOT = {
						exists = A85
					}
					has_estate_privilege = estate_mages_organization_magisterium
				}
			}
		}
		effect = {
			add_country_modifier = {
				name = giberd_the_grg
				duration = -1
			}
			custom_tooltip = giberd_sails_on_the_streams_effect_tt
			hidden_effect = {
				set_country_flag = a95_disable_bad_party1
				set_country_flag = a95_disable_bad_party2
			}
			country_event = {
				id = flavor_giberd.38
			}
		}
	}
	giberd_a_faire_to_remember = {
		icon = ven_capital_of_europe
		required_missions = {
			giberd_sails_on_the_streams
			giberd_to_strike_an_anvil
			giberd_understanding_the_fragment
			giberd_curtain_call
			giberd_an_esmari_army
		}
		position = 11
		provinces_to_highlight = {
			region = esmaria_region
			owned_by = ROOT
			NOT = {
				AND = {
					is_prosperous = yes
					has_state_edict = edict_protect_trade
				}
			}
		}
		trigger = {
			num_artifice_inventions_active = {
				VAL = 5
			}
			num_of_diplomats = 1
			num_of_merchants = 1
			num_of_transport = 30
			265 = {
				transports_in_province = 30
			}
			custom_trigger_tooltip = {
				tooltip = giberd_a_faire_to_remember_tt
				esmaria_region = {
					type = all
					OR = {
						NOT = {
							owned_by = ROOT
						}
						AND = {
							is_prosperous = yes
							has_state_edict = edict_protect_trade
						}
					}
				}
			}
			has_adm_advisor_5 = yes
			has_dip_advisor_5 = yes
			has_mil_advisor_5 = yes
		}
		effect = {
			265 = {
				kill_units = {
					who = ROOT
					type = transport
					amount = 30
				}
			}
			add_country_modifier = {
				name = giberd_statesmen_occupied
				duration = 180
			}
			country_event_with_insight = {
				id = flavor_giberd.41
				insight_tooltip = giberd_a_faire_to_remember_event_insight
			}
		}
	}
	giberd_to_name_a_hierarchy = {
		icon = mission_crowning
		required_missions = {
			giberd_egcat
			giberd_objectionable_oversight
		}
		position = 14
		provinces_to_highlight = {
		}
		trigger = {
			is_at_war = no
			is_defender_of_faith = yes
			custom_trigger_tooltip = {
				tooltip = giberd_to_name_a_hierarchy_tt
				all_states = {
					OR = {
						NOT = {
							region = esmaria_region
						}
						AND = {
							is_prosperous = yes
							has_state_edict = edict_advancement_effort
							any_province_in_state = {
								has_building = university
							}
							any_province_in_state = {
								OR = {
									has_building = cathedral
									AND = {
										has_building = temple
										owner = {
											treasury = 2000
										}
									}
								}
							}
						}
					}
				}
			}
			estate_loyalty = {
				estate = estate_artificers
				loyalty = 60
			}
		}
		effect = {
			country_event = {
				id = flavor_giberd.29
			}
			complex_dynamic_effect = {
				first_custom_tooltip = giberd_to_name_a_hierarchy_effect_tt
				first_limit = "NOT = {
					all_states = {
						OR = {
							NOT = {
								region = esmaria_region
							}
							any_province_in_state = {
								has_building = cathedral
							}
						}
					}
				}"
				first_effect = "add_treasury = -2000
				custom_tooltip = giberd_to_name_a_hierarchy_reward_tt
				hidden_effect = {
					every_owned_province = {
						limit = {
							region = esmaria_region
							has_building = temple
						}
						add_building = cathedral
					}
				}"
			}
		}
	}
}

giberd_mercantile_shipping = {
	slot = 4
	generic = no
	ai = yes
	potential = {
		tag = A81
	}
	has_country_shield = yes
	giberd_a_technocratic_administration = {
		icon = mission_science
		required_missions = {
			giberd_ready_the_anvil
		}
		position = 2
		provinces_to_highlight = {
			province_id = 271			#Giberd
			NOT = {
				development = 25
			}
			NOT = {
				AND = {
					num_of_times_expanded_infrastructure = 1
					has_dlc = "Leviathan"
				}
				AND = {
					has_trade_building_trigger = yes
					NOT = {
						has_dlc = "Leviathan"
					}
				}
			}
		}
		trigger = {
			is_not_researching_invention = yes
			num_artifice_inventions_discovered = {
				VAL = 3
			}
			# 1 more than the starting 2
			271 = {
				development = 25
				if = {
					limit = {
						owner = {
							ai = no
						}
					}
					if = {
						limit = {
							has_dlc = "Leviathan"
						}
						num_of_times_expanded_infrastructure = 1
					}
					else = {
						has_trade_building_trigger = yes
					}
				}
			}
		}
		effect = {
			block_artifice_research = {
				years = 10
				duration = 3650
			}
			custom_tooltip = giberd_after_5_years_tt
			tooltip = {
				271 = {
					add_province_modifier = {
						name = giberd_ace
						duration = -1
					}
				}
			}
			hidden_effect = {
				country_event = {
					id = flavor_giberd.59
					days = 1825
				}
			}
			if = {
				limit = {
					has_reform = free_city
				}
				remove_government_reform = free_city
			}
			add_government_reform = imperial_technocracy_republic_reform
		}
	}
	giberd_unbound_undertakings = {
		icon = mission_runeforged_cannons
		required_missions = {
			giberd_a_technocratic_administration
		}
		position = 3
		provinces_to_highlight = {
			province_id = 270
			OR = {
				NOT = {
					owned_by = ROOT
				}
				NOT = {
					province_has_current_tech_fort_trigger = yes
				}
				num_of_buildings_in_province = 2
				NOT = {
					ROOT = {
						check_variable = {
							which = giberd_bennonhill_exploited
							value = 1
						}
					}
				}
			}
		}
		trigger = {
			270 = {
				owned_by = ROOT
				province_has_current_tech_fort_trigger = yes
				NOT = {
					num_of_buildings_in_province = 2
				}
			}
			custom_trigger_tooltip = {
				tooltip = giberd_unbound_undertakings_tt
				check_variable = {
					which = giberd_bennonhill_exploited
					value = 1
				}
			}
		}
		effect = {
			270 = {
				add_province_modifier = {
					name = giberd_testing_grounds
					duration = -1
				}
			}
		}
	}
	giberd_chroniclers_and_casters = {
		icon = balance_the_estates
		required_missions = {
			giberd_unbound_undertakings
		}
		position = 4
		provinces_to_highlight = {
		}
		trigger = {
			OR = {
				has_estate_privilege = estate_artificers_trained_mage_hunters
				NOT = {
					estate_influence = {
						estate = estate_mages
						influence = 20
					}
				}
			}
			NOT = {
				estate_influence = {
					estate = estate_adventurers
					influence = 30
				}
			}
			if = {
				limit = {
					NOT = {
						has_estate_privilege = estate_adventurers_organization_chronicler_grants
					}
				}
				estate_loyalty = {
					estate = estate_adventurers
					loyalty = 50
				}
			}
		}
		effect = {
			add_country_modifier = {
				name = giberd_dealing_with_the_magisterium
				duration = -1
			}
			if = {
				limit = {
					NOT = {
						has_estate_privilege = estate_adventurers_organization_chronicler_grants
					}
				}
				set_estate_privilege = estate_adventurers_organization_chronicler_grants
			}
			else = {
				add_stability_or_adm_power = yes
			}
		}
	}
	giberd_from_a_school_to_a_university = {
		icon = public_works
		required_missions = {
			giberd_electoral_dreams
		}
		position = 7
		provinces_to_highlight = {
			is_capital_of = ROOT
			NOT = {
				AND = {
					development = 35
					OR = {
						num_of_times_expanded_infrastructure = 2
						NOT = {
							has_dlc = "Leviathan"
						}
					}
					has_state_edict = edict_advancement_effort
				}
			}
		}
		trigger = {
			capital_scope = {
				development = 35
				if = {
					limit = {
						has_dlc = "Leviathan"
					}
					num_of_times_expanded_infrastructure = 2
				}
				NOT = {
					has_construction = any
				}
			}
			custom_trigger_tooltip = {
				tooltip = giberd_from_a_school_to_a_university_edict_tt
				had_country_flag = {
					flag = giberd_bennonhill_advancement_edict
					days = 1825
				}
			}
			artifice_has_num_inventions_active = {
				amount = 3
			}
		}
		effect = {
			capital_scope = {
				add_building = university
				remove_province_modifier = giberd_ace
				add_permanent_province_modifier = {
					name = giberd_first_artificer_school
					duration = -1
				}
			}
		}
	}
	giberd_castle_clareen = {
		icon = fortress_of_belgrade
		required_missions = {
			giberd_from_a_school_to_a_university
			giberd_the_esmari_ravelians
		}
		position = 8
		provinces_to_highlight = {
			province_id = 271
			NOT = {
				AND = {
					province_has_current_tech_fort_trigger = yes
					has_building = ramparts
					OR = {
						is_prosperous = yes
						has_state_edict = edict_defensive_edict
					}
				}
			}
		}
		trigger = {
			271 = {
				province_has_current_tech_fort_trigger = yes
				has_building = ramparts
				OR = {
					custom_trigger_tooltip = {
						tooltip = castle_clareen_prosperous_tt
						is_prosperous = yes
					}
					custom_trigger_tooltip = {
						tooltip = giberd_castle_clareen_edict_tt
						owner = {
							had_country_flag = {
								flag = giberd_bennonhill_defensive_edict
								days = 1825
							}
						}
					}
				}
			}
			has_mil_advisor_3 = yes
		}
		effect = {
			271 = {
				add_province_triggered_modifier = giberd_modern_fortress
				custom_tooltip = giberd_castle_clareen_effect_tt
				add_province_modifier = {
					name = giberd_clear_skies
					duration = 9125
				}
				hidden_effect = {
					every_neighbor_province = {
						add_province_modifier = {
							name = giberd_clear_skies
							duration = 9125
						}
					}
				}
			}
		}
	}
	giberd_the_shooddenin_kemess = {
		icon = imperial_navy
		required_missions = {
			giberd_castle_clareen
			giberd_diplomacy_deals_dominions
		}
		position = 9
		provinces_to_highlight = {
			province_id = 265
			NOT = {
				AND = {
					owner = {
						num_of_light_ship = 30
					}
					light_ships_in_province = 30
				}
				AND = {
					owner = {
						num_of_transport = 30
					}
					transports_in_province = 30
				}
			}
		}
		trigger = {
			is_not_researching_invention = yes
			has_country_modifier = giberd_gds_loopeng_gedsandde
			estate_loyalty = {
				estate = estate_artificers
				loyalty = 70
			}
			estate_influence = {
				estate = estate_artificers
				influence = 60
			}
			OR = {
				AND = {
					num_of_light_ship = 30
					265 = {
						light_ships_in_province = 30
					}
				}
				AND = {
					num_of_transport = 30
					265 = {
						transports_in_province = 30
					}
				}
			}
		}
		effect = {
			add_country_modifier = {
				name = giberd_gds_shooddenin_kemess_research
				duration = 1825
			}
			if = {
				limit = {
					265 = {
						light_ships_in_province = 30
					}
				}
				265 = {
					kill_units = {
						who = ROOT
						type = light_ship
						amount = 30
					}
				}
			}
			else = {
				265 = {
					kill_units = {
						who = ROOT
						type = transport
						amount = 30
					}
				}
			}
			remove_country_modifier = giberd_gds_loopeng_gedsandde
			add_country_modifier = {
				name = giberd_gds_shooddenin_kemess
				duration = -1
			}
		}
	}
	giberd_an_esmari_army = {
		icon = mission_modern_knight_army
		required_missions = {
			giberd_the_shooddenin_kemess
			giberd_the_artificers_of_cannor
		}
		position = 10
		provinces_to_highlight = {
			owned_by = ROOT
			OR = {
				AND = {
					NOT = {
						has_manpower_building_trigger = yes
					}
					NOT = {
						ROOT = {
							num_of_owned_provinces_with = {
								value = 10
								has_manpower_building_trigger = yes
							}
						}
					}
				}
				AND = {
					NOT = {
						has_forcelimit_building_trigger = yes
					}
					NOT = {
						ROOT = {
							num_of_owned_provinces_with = {
								value = 10
								has_forcelimit_building_trigger = yes
							}
						}
					}
				}
				AND = {
					province_id = 267
					NOT = {
						AND = {
							has_great_project = {
								type = the_lake_palace
								tier = 3
							}
							num_free_building_slots = 1
							has_manpower_building_trigger = yes
							has_forcelimit_building_trigger = yes
						}
					}
				}
			}
		}
		trigger = {
			mission_completed = giberd_curtain_call
			num_of_rajput = 20
			num_of_owned_provinces_with = {
				value = 10
				has_manpower_building_trigger = yes
			}
			num_of_owned_provinces_with = {
				value = 10
				has_forcelimit_building_trigger = yes
			}
			num_military_artifice_inventions_active_tier_3 = {
				VAL = 1
			}
			267 = {
				has_great_project = {
					type = the_lake_palace
					tier = 3
				}
				num_free_building_slots = 1
				has_manpower_building_trigger = yes
				has_forcelimit_building_trigger = yes
			}
		}
		effect = {
			267 = {
				add_province_modifier = {
					name = giberd_the_gg
					duration = -1
				}
				add_building = naval_battery
			}
		}
	}
	giberd_tha_stook_gaddod = {
		icon = mission_the_varangians
		required_missions = {
			giberd_a_faire_to_remember
		}
		position = 12
		provinces_to_highlight = {
			owner = {
				tag = Z97
			}
			NOT = {
				AND = {
					ROOT = {
						alliance_with = Z97
					}
					ROOT = {
						reverse_has_opinion = {
							who = Z97
							value = 100
						}
					}
				}
				ROOT = {
					army_strength = {
						who = Z97
						value = 4
					}
				}
			}
		}
		trigger = {
			OR = {
				alliance_with = Z97
				reverse_has_opinion = {
					who = Z97
					value = 100
				}
			}
			army_strength = {
				who = Z97
				value = 4
			}
			is_defender_of_faith = yes
			num_of_rajput = 50
			271 = {
				num_of_units_in_province = {
					who = ROOT
					type = infantry
					amount = 50
				}
				num_of_units_in_province = {
					who = ROOT
					type = artillery
					amount = 50
				}
			}
		}
		effect = {
			271 = {
				kill_units = {
					who = ROOT
					type = infantry
					amount = 50
				}
			}
			add_country_modifier = {
				name = giberd_the_fragment_guard
				duration = -1
			}
			Z97 = {
				add_country_modifier = {
					name = giberd_the_fragment_guard_ravelian
					duration = -1
				}
			}
		}
	}
	giberd_objectionable_oversight = {
		icon = mission_discussion_arch
		required_missions = {
			giberd_tha_stook_gaddod
		}
		position = 13
		provinces_to_highlight = {
			OR = {
				AND = {
					OR = {
						province_id = 271
						province_id = 275
						province_id = 901
						province_id = 266
						province_id = 911
					}
					NOT = {
						has_building = cathedral
						owned_by = Z97
					}
				}
				AND = {
					is_capital_of = Z97
					NOT = {
						owner = {
							owes_favors = {
								who = ROOT
								value = 30
							}
						}
					}
				}
			}
		}
		trigger = {
			custom_trigger_tooltip = {
				tooltip = is_researching_invention_tt
				has_country_flag = artifice_research_in_progress
			}
			adm_power = 200
			dip_power = 200
			271 = {
				has_building = cathedral
			}
			275 = {
				OR = {
					has_building = cathedral
					owned_by = Z97
				}
			}
			901 = {
				OR = {
					has_building = cathedral
					owned_by = Z97
				}
			}
			266 = {
				OR = {
					has_building = cathedral
					owned_by = Z97
				}
			}
			911 = {
				OR = {
					has_building = cathedral
					owned_by = Z97
				}
			}
			Z97 = {
				owes_favors = {
					who = ROOT
					value = 30
				}
			}
		}
		effect = {
			add_adm_power = -200
			add_dip_power = -200
			add_favors = {
				who = Z97
				amount = -30
			}
			country_event = {
				id = flavor_giberd.19
			}
		}
	}
}

Giberd_fake = {
	slot = 5
	generic = no
	ai = yes
	has_country_shield = yes
	potential = {
		tag = A81
	}
}

giberd_artificer = {
	slot = 5
	generic = no
	ai = yes
	potential = {
		tag = A81
	}
	has_country_shield = yes
	giberd_the_esmari_ravelians = {
		icon = mission_cope_with_refugees
		required_missions = {
			giberd_electoral_dreams
		}
		position = 7
		provinces_to_highlight = {
			owned_by = ROOT
			OR = {
				province_id = 275
				province_id = 271
				province_id = 911
				province_id = 265
				province_id = 266
			}
			unrest = 0
		}
		trigger = {
			custom_trigger_tooltip = {
				tooltip = H33_ravelian_society_enabled_tt
				has_global_flag = ravelian_society_founded
			}
			custom_trigger_tooltip = {
				tooltip = corintar_deluge_tt
				OR = {
					has_global_flag = crimson_deluge_is_over
					has_global_flag = crimson_deluge_is_actively_happening
				}
			}
			275 = {
				NOT = {
					unrest = 0
				}
			}
			271 = {
				NOT = {
					unrest = 0
				}
			}
			911 = {
				NOT = {
					unrest = 0
				}
			}
			265 = {
				NOT = {
					unrest = 0
				}
			}
			266 = {
				NOT = {
					unrest = 0
				}
			}
			treasury = 1000
			num_society_artifice_inventions_active_tier_2 = {
				VAL = 1
			}
			OR = {
				innovativeness_ideas = 2
				innovativeness = 50
			}
		}
		effect = {
			add_country_modifier = {
				name = giberd_accepting_radicals
				duration = 7300
			}
			add_treasury = -1000
			275 = {
				add_or_upgrade_ravelian_society = yes
			}
			271 = {
				add_or_upgrade_ravelian_society = yes
			}
			911 = {
				add_or_upgrade_ravelian_society = yes
			}
			265 = {
				add_or_upgrade_ravelian_society = yes
			}
			266 = {
				add_or_upgrade_ravelian_society = yes
			}
		}
	}
	giberd_protecting_kin_and_ravelian = {
		icon = mission_warrior_gold
		required_missions = {
			giberd_the_esmari_ravelians
		}
		position = 8
		provinces_to_highlight = {
			OR = {
				province_id = 275
				province_id = 271
				province_id = 911
				province_id = 265
				province_id = 266
			}
			NOT = {
				AND = {
					has_courthouse_building_trigger = yes
					province_has_current_tech_fort_trigger = yes
				}
			}
		}
		trigger = {
			custom_trigger_tooltip = {
				tooltip = giberd_league_war_tt
				OR = {
					corintar_league_war_started = yes
					hre_leagues_enabled = yes
				}
			}
			if = {
				limit = {
					has_dlc = "Rule Britannia"
				}
				innovativeness = 60
			}
			else = {
				full_idea_group = innovativeness_ideas
			}
			OR = {
				religion = ravelian
				AND = {
					religion = regent_court
					has_personal_deity = esmaryal
				}
				AND = {
					religion = corinite
					is_defender_of_faith = yes
				}
				AND = {
					religion = infernal_court
					has_infernal_deity = { deity = ildran }
				}
			}
			275 = {
				has_courthouse_building_trigger = yes
				province_has_current_tech_fort_trigger = yes
			}
			271 = {
				has_courthouse_building_trigger = yes
				province_has_current_tech_fort_trigger = yes
			}
			911 = {
				has_courthouse_building_trigger = yes
				province_has_current_tech_fort_trigger = yes
			}
			265 = {
				has_courthouse_building_trigger = yes
				province_has_current_tech_fort_trigger = yes
			}
			266 = {
				has_courthouse_building_trigger = yes
				province_has_current_tech_fort_trigger = yes
			}
		}
		effect = {
			add_country_modifier = {
				name = giberd_integrating_ravelians
				duration = 3650
			}
			271 = {
				add_base_production = 1
				add_province_modifier = {
					name = giberd_mass_influx_ravelians
					duration = -1
				}
			}
			275 = {
				add_province_modifier = {
					name = giberd_mass_influx_ravelians
					duration = 21900
				}
			}
			911 = {
				add_province_modifier = {
					name = giberd_mass_influx_ravelians
					duration = 21900
				}
			}
			265 = {
				add_province_modifier = {
					name = giberd_mass_influx_ravelians
					duration = 21900
				}
			}
			266 = {
				add_province_modifier = {
					name = giberd_mass_influx_ravelians
					duration = 21900
				}
			}
			country_event = {
				id = flavor_giberd.39
			}
		}
	}
	giberd_atypical_artificers = {
		icon = mission_artificier_experience
		required_missions = {
			giberd_protecting_kin_and_ravelian
		}
		position = 9
		provinces_to_highlight = {
			owned_by = ROOT
			region = esmaria_region
			has_province_modifier = ravelian_society
			NOT = {
				AND = {
					base_production = 8
					has_forcelimit_building_trigger = yes
				}
			}
		}
		trigger = {
			is_not_researching_invention = yes
			custom_trigger_tooltip = {
				tooltip = giberd_technomancer_in_power_tt
				has_ruler_flag = technomancy_ruler
			}
			artifice_has_points_30 = yes
			if = {
				limit = {
					exists = Z97
				}
				OR = {
					exists = Z97
					any_owned_province = {
						has_province_modifier = ravelian_society
						base_production = 12
					}
				}
				OR = {
					exists = Z97
					custom_trigger_tooltip = {
						tooltip = giberd_atypical_artificers_tt
						all_owned_province = {
							OR = {
								AND = {
									base_production = 8
									has_forcelimit_building_trigger = yes
								}
								NOT = {
									has_province_modifier = ravelian_society
								}
								NOT = {
									region = esmaria_region
								}
							}
						}
					}
				}
			}
			else = {
				any_owned_province = {
					has_province_modifier = ravelian_society
					base_production = 12
				}
				custom_trigger_tooltip = {
					tooltip = giberd_atypical_artificers_tt
					all_owned_province = {
						OR = {
							AND = {
								base_production = 8
								has_forcelimit_building_trigger = yes
							}
							NOT = {
								has_province_modifier = ravelian_society
							}
							NOT = {
								region = esmaria_region
							}
						}
					}
				}
			}
		}
		effect = {
			add_or_extend_country_modifier = {
				name = artificers_busy_60
				duration = 1825
			}
			add_country_modifier = {
				name = giberd_atypical_artificers_research
				duration = 3650
			}
			custom_tooltip = giberd_change_artifice_limit_tt
			custom_tooltip = artifice_limited_to_tier_3_tt
			clr_country_flag = artifice_limited_to_tier_2
			artifice_tiering_update = yes
			271 = {
				remove_province_modifier = ravelian_society
				add_province_modifier = {
					name = giberd_ravelian_workshop
					duration = -1
				}
			}
		}
	}
	giberd_understanding_the_fragment = {
		icon = mission_crystal_focus
		required_missions = {
			giberd_atypical_artificers
		}
		position = 10
		provinces_to_highlight = {
			province_id = 898
			NOT = {
				owner = {
					has_100_opinion_improved_relation = {
						target = ROOT
					}
				}
				owner = {
					has_spy_network_from = {
						who = ROOT
						value = 50
					}
				}
				owned_by = ROOT
			}
		}
		trigger = {
			if = {
				limit = {
					has_dlc = "El Dorado"
					NOT = {
						is_year = 1620
					}
				}
				custom_trigger_tooltip = {
					tooltip = H33_god_fragment_found_tt
					has_global_flag = god_fragment_found
				}
			}
			else = {
				is_year = 1620
			}
			898 = {
				OR = {
					owner = {
						has_100_opinion_improved_relation = {
							target = ROOT
						}
					}
					owner = {
						has_spy_network_from = {
							who = ROOT
							value = 50
						}
					}
					owned_by = ROOT
				}
			}
			is_not_researching_invention = yes
			artifice_not_using_any_inventions = yes
			custom_trigger_tooltip = {
				tooltip = is_not_using_any_artificer_cap_tt
				NOT = {
					check_variable = {
						which = ArtificeUpkeep
						value = 1
					}
				}
			}
		}
		effect = {
			271 = {
				add_province_modifier = {
					name = giberd_ravelians_send_finest
					duration = 7300
				}
				add_cardinal = yes
				custom_tooltip = H33_permanent_veridical_tt
				hidden_effect = {
					add_province_triggered_modifier = giberd_permanent_veridical
				}
			}
			275 = {
				add_cardinal = yes
				custom_tooltip = H33_permanent_veridical_tt
				hidden_effect = {
					add_province_triggered_modifier = giberd_permanent_veridical
				}
			}
			add_country_modifier = {
				name = giberd_factions_united
				duration = -1
			}
			complex_dynamic_effect_without_alternative = {
				first_custom_tooltip = giberd_understanding_the_fragment_effect_not_yet_tt
				first_limit = "NOT = { has_global_flag = ravelianism_can_be_founded }"
				first_effect = "add_prestige = 10"
				second_custom_tooltip = giberd_understanding_the_fragment_effect_yes_tt
				second_limit = "NOT = { exists = Z97 }
								has_global_flag = ravelianism_can_be_founded"
				second_effect = "set_global_flag = allow_non_ideal_rectorate_candidate
								 country_event = { id = ravelian.4 }
			add_or_extend_country_modifier = {
				name = artificers_busy_all
				duration = 3650
			}"
				third_custom_tooltip = giberd_understanding_the_fragment_effect_no_tt
				third_limit = "exists = Z97"
				third_effect = "transfer_papal_controller = ROOT
			add_or_extend_country_modifier = {
				name = artificers_busy_all
				duration = 3650
			}"
			}
		}
	}
}
